CODE;NAME;DESCRIPTION;TYPE
01;Kategori 01;Beskrivning Kategori 01;
0101;Kategori 0101;Beskrivning Kategori 0101;
010101;Kategori H 010101;Beskrivning Kategori 010101;H
010102;Kategori H 010102;Beskrivning Kategori 010102;H
02;Kategori 02;Beskrivning Kategori 02;
0201;Kategori 0201;Beskrivning Kategori 0201;
020101;Kategori H 020101;Beskrivning Kategori 020101;H
020102;Kategori H 020102;Beskrivning Kategori 020102;H
0202;Kategori 0202;Beskrivning Kategori 0202;
020201;Kategori T 020201;Beskrivning Kategori 020201;T
020202;Kategori T 020202;Beskrivning Kategori 020202;T
0203;Kategori 0203;Beskrivning Kategori 0203;
020301;Kategori H 020301;Beskrivning Kategori 020101;
020301-01;Kategori H 020301-01;Beskrivning Kategori 020101-1;H
020301-02;Kategori H 020301-02;Beskrivning Kategori 020101-2;H
020302;Kategori H 020302;Beskrivning Kategori 020102;H
;Kategori Tj utan kod;Beskrivning Kategori utan kod;Tj
;Kategori R utan kod 2;Beskrivning Kategori utan kod 2;R
;Kategori I utan kod 3;Beskrivning Kategori utan kod 3;I
;Kategori T utan kod 4;Beskrivning Kategori utan kod 4;T