[
  {
    "sortOrder": null,
    "name": "Hörsel",
    "description": "Beskrivning Hörsel",
    "parent": null,
    "category": null,
    "displayOrder": null
  },
  {
    "sortOrder": null,
    "name": "Förflyttning",
    "description": "Beskrivning Förflyttning",
    "parent": null,
    "category": null,
    "displayOrder": null
  },
  {
    "sortOrder": null,
    "name": "Träning, vård och behandling",
    "description": "Beskrivning Träning, vård och behandling",
    "parent": null,
    "category": null,
    "displayOrder": null

  },
  {
    "sortOrder": null,
    "name": "Kognition och kommunikation",
    "description": "Beskrivning Kognition och kommunikation",
    "parent": null,
    "category": null,
    "displayOrder": null
  },
  {
    "sortOrder": null,
    "name": "Syn",
    "description": "Beskrivning Syn",
    "parent": null,
    "category": null,
    "displayOrder": null
  },
  {
    "sortOrder": null,
    "name": "I hemmet",
    "description": "Beskrivning I hemmet",
    "parent": null,
    "category": null,
    "displayOrder": null
  },
  {
    "sortOrder": null,
    "name": "Inkontinens",
    "description": "Beskrivning Inkontinens",
    "parent": null,
    "category": null,
    "displayOrder": null
  },
  {
    "sortOrder": null,
    "name": "Övriga",
    "description": "Beskrivning Övriga",
    "parent": null,
    "category": null,
    "displayOrder": null
  }
]
