<?xml version="1.0" encoding="utf-8"?>
<!-- Generator: Adobe Illustrator 19.1.0, SVG Export Plug-In . SVG Version: 6.00 Build 0)  -->
<svg version="1.1" id="Original_Pos" xmlns="http://www.w3.org/2000/svg" x="0px"
		 y="0px" viewBox="0 0 841.9 505" style="enable-background:new 0 0 841.9 505;" xml:space="preserve">
<style type="text/css">
	.st0 {
		fill: #362D20;
	}

	.st1 {
		fill-rule: evenodd;
		clip-rule: evenodd;
		fill: url(#SVGID_1_);
	}

	.st2 {
		fill: #FFFFFF;
	}

	.st3 {
		fill: url(#SVGID_2_);
	}

	.st4 {
		fill: url(#SVGID_3_);
	}
</style>
	<g>
	<path class="st0" d="M85.1,496.7V303.4h36.1v193.3H85.1z"/>
		<path class="st0" d="M290.1,496.7V365c0-19.9-8.5-33.2-29.6-33.2c-19,0-38.5,12.6-55.9,31.2v133.7h-36.1V303.4h28.8l4.5,28
		c18.2-16.6,40.9-32,68.5-32c36.5,0,55.9,21.9,55.9,56.7v140.6H290.1z"/>
		<path class="st0" d="M523.8,403.9H392.5c1.2,45,22.7,66.1,56.3,66.1c28,0,48.2-10.9,69.3-27.6l5.3,32.4
		C502.7,491,478,500.7,446,500.7c-50.3,0-89.6-30.4-89.6-101.3c0-62,36.5-100.1,85.1-100.1c56.3,0,82.3,43.4,82.3,96.9
		C523.8,398.2,523.8,401.5,523.8,403.9z M441.1,327.7c-22.3,0-41.3,15.8-47,49h93.2C482.9,345.5,469.1,327.7,441.1,327.7z"/>
		<path class="st0" d="M597.3,382.4v114.3h-36.1V303.4H590l6.1,39.3c13.8-21.9,36.1-41.7,67.7-43.4l5.7,34.4
		C637.4,335.4,610.2,356.9,597.3,382.4z"/>
		<path class="st0" d="M803.7,496.7l-4.1-25.9c-15.4,15.8-36.5,30-68.1,30c-34.9,0-56.7-21.1-56.7-53.9c0-48.2,41.3-67.3,122-75.8
		V363c0-24.3-14.6-32.8-36.9-32.8c-23.5,0-45.8,7.3-66.9,16.6l-4.9-31.2c23.1-9.3,45-16.2,75-16.2c47,0,69.7,19,69.7,62v135.4H803.7
		z M796.8,398.6c-71.3,6.9-86.3,26.3-86.3,46.2c0,15.8,10.5,25.9,28.8,25.9c21.1,0,41.3-10.5,57.6-27.2V398.6z"/>
</g>
	<radialGradient id="SVGID_1_" cx="98.8492" cy="149.8883" r="211.054"
									gradientTransform="matrix(1.0021 0 0 1.002 -0.8735 -0.4935)" gradientUnits="userSpaceOnUse">
	<stop offset="0.1484" style="stop-color:#F4A600"/>
		<stop offset="0.3107" style="stop-color:#F19103"/>
		<stop offset="0.7758" style="stop-color:#E8580C"/>
		<stop offset="1" style="stop-color:#E44210"/>
</radialGradient>
	<path class="st1" d="M241.8,17c-33.1-33.1-148.2,3.2-212,77.5C-4,133.9-3.1,189.7,33,225.8c12.4,12.4,28.8,7.9,36.7,0
	c5.3-5.3,11.5-14.3,16.2-26.5c21-54.5,51.5-58.5,80.3-70.3c55.9-23.1,78.2-52.5,82.5-76.6c2.2-11.2,1.3-25.1-5.2-33.4"/>
	<path class="st2" d="M138.8,196.8c-21.2,21.2-55.6,21.2-76.8,0c-21.2-21.2-21.2-55.6,0-76.8c21.2-21.2,55.6-21.2,76.8,0
	C160,141.2,160,175.6,138.8,196.8z"/>
	<radialGradient id="SVGID_2_" cx="101.0435" cy="158.5489" r="103.5098"
									gradientTransform="matrix(1.0021 0 0 1.002 -0.8735 -0.4935)" gradientUnits="userSpaceOnUse">
	<stop offset="0" style="stop-color:#B9E0E6"/>
		<stop offset="1" style="stop-color:#009A9D"/>
</radialGradient>
	<path class="st3" d="M243.1,18.6c6.4,8.3,7.4,22.2,5.2,33.4c-4.2,24.1-26.5,53.5-82.5,76.6c-5.5,2.3-11,4.2-16.5,6.3
	c9.7,20.2,6.2,45.1-10.5,61.9c-15.6,15.6-38.4,19.7-57.9,12.3c-3.8,7.2-7.9,12.7-11.6,16.4c-7.8,7.9-24.3,12.4-36.7,0l0.3,0.3
	c36.1,35.8,91.7,36.6,131,2.9C237,166.1,273.2,53.9,243.1,18.6z"/>
	<radialGradient id="SVGID_3_" cx="106.9214" cy="160.2243" r="68.9994"
									gradientTransform="matrix(1.0021 0 0 1.002 -0.8735 -0.4935)" gradientUnits="userSpaceOnUse">
	<stop offset="0" style="stop-color:#C3E5ED"/>
		<stop offset="0.1729" style="stop-color:#B9E1E8"/>
		<stop offset="0.4699" style="stop-color:#9DD6DC"/>
		<stop offset="0.7692" style="stop-color:#7BC8CC"/>
</radialGradient>
	<path class="st4" d="M138.8,196.8c16.7-16.7,20.2-41.7,10.5-61.9c-14.4,5.5-29.3,12-43.1,27.7c-14.5,16.5-20.6,38.5-25.3,46.5
	C100.4,216.5,123.2,212.4,138.8,196.8z"/>
</svg>
